<svg width="20" height="19" viewBox="0 0 20 19" fill="none" xmlns="http://www.w3.org/2000/svg">
<path d="M0.640055 18.0047H3.20245C3.55596 18.0047 3.8425 17.7181 3.8425 17.3646V6.16447C3.8425 5.81092 3.55596 5.52441 3.20245 5.52441H0.640055C0.286509 5.52441 0 5.81092 0 6.16447V17.3646C0 17.7181 0.286509 18.0047 0.640055 18.0047Z" fill="white"/>
<path d="M0.640055 3.55553H3.20245C3.55596 3.55553 3.8425 3.26898 3.8425 2.91548V0.640055C3.8425 0.286545 3.55596 0 3.20245 0H0.640055C0.286509 0 0 0.286545 0 0.640055V2.91548C0 3.26898 0.286509 3.55553 0.640055 3.55553Z" fill="white"/>
<path d="M18.7464 6.8236C18.3863 6.34963 17.8553 5.95986 17.1533 5.65435C16.4513 5.34905 15.6764 5.19629 14.8285 5.19629C13.1074 5.19629 11.649 5.85314 10.4534 7.16709C10.2155 7.42853 10.0425 7.37137 10.0425 7.01782V6.16457C10.0425 5.81103 9.75593 5.52452 9.40242 5.52452H7.11348C6.75994 5.52452 6.47343 5.81103 6.47343 6.16457V17.3647C6.47343 17.7183 6.75997 18.0048 7.11348 18.0048H9.67587C10.0294 18.0048 10.3159 17.7183 10.3159 17.3647V13.4696C10.3159 11.8469 10.4139 10.7346 10.6099 10.133C10.8058 9.53133 11.1683 9.0482 11.697 8.68353C12.2258 8.31886 12.8229 8.13644 13.4885 8.13644C14.0081 8.13644 14.4525 8.26409 14.8218 8.51944C15.191 8.77475 15.4577 9.13239 15.6218 9.59288C15.786 10.0533 15.868 11.0675 15.868 12.6355V17.3647C15.868 17.7182 16.1545 18.0048 16.508 18.0048H19.0704C19.4239 18.0048 19.7104 17.7182 19.7104 17.3647V11.0219C19.7104 9.9006 19.6398 9.03904 19.4986 8.43739C19.3574 7.83574 19.1066 7.29781 18.7464 6.8236Z" fill="white"/>
</svg>
