<svg width="21" height="21" viewBox="0 0 21 21" fill="none" xmlns="http://www.w3.org/2000/svg">
<g clip-path="url(#clip0)">
<path d="M2.01559 7.33616C2.28123 7.52362 3.08199 8.08036 4.4179 9.0061C5.75386 9.93185 6.77729 10.6446 7.48824 11.1445C7.56635 11.1993 7.73229 11.3184 7.98616 11.502C8.24007 11.6858 8.45104 11.8342 8.61892 11.9475C8.78692 12.0607 8.99001 12.1877 9.22841 12.3283C9.46672 12.4687 9.69136 12.5744 9.90229 12.6443C10.1133 12.7148 10.3086 12.7498 10.4882 12.7498H10.5H10.5118C10.6915 12.7498 10.8869 12.7148 11.0978 12.6443C11.3087 12.5744 11.5335 12.4686 11.7716 12.3283C12.0099 12.1875 12.213 12.0606 12.381 11.9475C12.549 11.8342 12.7598 11.6858 13.0138 11.502C13.2676 11.3183 13.4337 11.1993 13.5118 11.1445C14.2305 10.6446 16.0588 9.37506 18.9962 7.33592C19.5664 6.93765 20.0429 6.45709 20.4256 5.89456C20.8087 5.33228 21 4.74241 21 4.12529C21 3.60959 20.8144 3.16815 20.4432 2.80099C20.0721 2.43376 19.6326 2.25024 19.125 2.25024H1.87492C1.2734 2.25024 0.810487 2.45334 0.486267 2.85953C0.162089 3.26579 0 3.77361 0 4.38293C0 4.87511 0.214915 5.40846 0.644539 5.98264C1.07412 6.55687 1.53129 7.00809 2.01559 7.33616Z" fill="white"/>
<path d="M19.828 8.59005C17.2657 10.3243 15.3202 11.672 13.9922 12.6331C13.5469 12.9611 13.1857 13.2171 12.9083 13.4006C12.6308 13.5842 12.2619 13.7717 11.8009 13.963C11.34 14.1546 10.9105 14.2501 10.512 14.2501H10.5H10.4883C10.0898 14.2501 9.66008 14.1546 9.19922 13.963C8.73836 13.7717 8.36916 13.5842 8.09181 13.4006C7.81455 13.2171 7.45318 12.9611 7.00792 12.6331C5.95317 11.8597 4.0118 10.5118 1.18371 8.59005C0.738287 8.29337 0.343757 7.95331 0 7.57056V16.875C0 17.3909 0.183515 17.8321 0.55075 18.1993C0.917903 18.5666 1.35939 18.7502 1.87504 18.7502H19.1251C19.6406 18.7502 20.0821 18.5666 20.4493 18.1993C20.8166 17.832 21 17.391 21 16.875V7.57056C20.664 7.94539 20.2735 8.28545 19.828 8.59005Z" fill="white"/>
</g>
<defs>
<clipPath id="clip0">
<rect width="21" height="21" fill="white"/>
</clipPath>
</defs>
</svg>
