<svg width="1440" height="1218" viewBox="0 0 1440 1218" fill="none" xmlns="http://www.w3.org/2000/svg">
<path d="M1864.49 981.147C1784.06 926.313 1686.14 903.273 1589.68 916.489L1555.35 922.864L1553.64 923.806L750.39 1074.51L893.785 1329.24C916.12 1368.96 950.304 1400.72 991.565 1420.08C1032.83 1439.45 1079.11 1445.44 1123.95 1437.24L1284.33 1407.13L1563.62 1354.68L1060.21 2108.46L471.987 1063.03L347.354 841.69C346.129 839.472 344.952 837.34 343.681 835.037C313.107 784.183 265.016 746.241 208.439 728.333C151.861 710.425 90.6881 713.782 36.4029 737.776C-2.71427 755.459 -36.0129 783.875 -59.6267 819.722L-218.731 1058.24C-310.859 1196.46 -230.396 1382.76 -70.992 1420.86C-61.9677 1422.89 -52.6493 1424.65 -43.0925 1425.83L116.516 1445.34C144.46 1449.31 171.133 1459.59 194.515 1475.39C217.897 1491.2 237.374 1512.11 251.473 1536.56C426.017 1845.76 600.69 2154.93 775.493 2464.07C780.14 2471.07 784.58 2477.3 789.041 2482.97C811.955 2512.74 839.619 2538.53 870.921 2559.3C1009.73 2651.84 1196.5 2630.43 1305.49 2509.84C1316.1 2498.01 1325.87 2485.44 1334.71 2472.23L1971.07 1517.85C2027.37 1432.31 2047.76 1328.06 2027.81 1227.63C2007.87 1127.2 1949.2 1038.66 1864.49 981.147Z" fill="url(#paint0_linear)" fill-opacity="0.25"/>
<defs>
<linearGradient id="paint0_linear" x1="483.273" y1="490.272" x2="1538.15" y2="2401.24" gradientUnits="userSpaceOnUse">
<stop stop-color="#FC9F32"/>
<stop offset="1" stop-color="#C242E2"/>
</linearGradient>
</defs>
</svg>
